…
#### Improved Visualization

• Let’s first get an idea of how many countries we can usefully compare.
The lab description says that the visualization excludes countries with
less than 100,000 tons. Let’s see how many countries that leaves us
with.

``` r
fisheries %>% 
  filter(total >= 100000)
```

    ## # A tibble: 82 × 4
    ##    country    capture aquaculture   total
    ##    <chr>        <dbl>       <dbl>   <dbl>
    ##  1 Angola      486490         655  487145
    ##  2 Argentina   755226        3673  758899
    ##  3 Australia   174629       96847  271476
    ##  4 Bangladesh 1674770     2203554 3878324
    ##  5 Brazil      705000      581230 1286230
    ##  6 Cambodia    629950      172500  802450
    ##  7 Cameroon    233190        2315  235505
    ##  8 Canada      874727      200765 1075492
    ##  9 Chad        110000          94  110094
    ## 10 Chile      1829238     1050117 2879355
    ## # ℹ 72 more rows
…
